module main

go 1.21.0

require (
	github.com/ebitengine/oto/v3 v3.0.0
	github.com/hajimehoshi/go-mp3 v0.3.4
)

require (
	github.com/ebitengine/purego v0.5.0-alpha // indirect
	golang.org/x/sys v0.10.0 // indirect
)
